//==============================================================================
// This file is part of
//
// VPLswig - SWIG-based VPL bindings for Python
// Changes are Copyright 2016 3Dim Laboratory s.r.o.
// All rights reserved.
//
// Use of this source code is governed by a BSD-style license that can be
// found in the LICENSE file.
//==============================================================================

// Module description 
%module (package = "VPLSwig.Volume") VolumeFunctions
%include "../Core/Common.i"
%import "Volume.i"

#undef VPL_FFTW_ENABLED
#define VPL_VOLUME_DATA_ALLOCATION_IN_BLOCKS
%{
#include <VPL\Image\Slice.h>
#include <VPL\ImageIO\DicomSlice.h>
#include <VPL\Image\DensityVolume.h>
%}


%include "Histogram.i"
%include "General.i"
