//==============================================================================
// This file is part of
//
// VPLswig - SWIG-based VPL bindings for Python
// Changes are Copyright 2016 3Dim Laboratory s.r.o.
// All rights reserved.
//
// Use of this source code is governed by a BSD-style license that can be
// found in the LICENSE file.
//==============================================================================
// Module description 
%module VPLPython
%include "../Core/Core.i"
%include "../Volume/Volume.i"